Homo sapiens (HSGC);chr10;chr10
Homo sapiens (HSGC);chr11;chr11
Homo sapiens (HSGC);chr12;chr12
Homo sapiens (HSGC);chr13;chr13
Homo sapiens (HSGC);chr14;chr14
Homo sapiens (HSGC);chr15;chr15
Homo sapiens (HSGC);chr16;chr16
Homo sapiens (HSGC);chr17;chr17
Homo sapiens (HSGC);chr18;chr18
Homo sapiens (HSGC);chr19;chr19
Homo sapiens (HSGC);chr1;chr1
Homo sapiens (HSGC);chr20;chr20
Homo sapiens (HSGC);chr21;chr21
Homo sapiens (HSGC);chr22;chr22
Homo sapiens (HSGC);chr2;chr2
Homo sapiens (HSGC);chr3;chr3
Homo sapiens (HSGC);chr4;chr4
Homo sapiens (HSGC);chr5;chr5
Homo sapiens (HSGC);chr6;chr6
Homo sapiens (HSGC);chr7;chr7
Homo sapiens (HSGC);chr8;chr8
Homo sapiens (HSGC);chr9;chr9
Homo sapiens (HSGC);chrM;chrM
Homo sapiens (HSGC);chrX;chrX
Homo sapiens (HSGC);chrY;chrY
