%!PS-Adobe-3.0
%%Creator: FLTK
%%LanguageLevel: 2
%%Pages: (atend)
%%BeginFeature: *PageSize A4
<</PageSize[595 842]>>setpagedevice
%%EndFeature
%%EndComments
%%BeginProlog
/L { /y2 exch def
/x2 exch def
/y1 exch def
/x1 exch def
newpath   x1 y1 moveto x2 y2 lineto
stroke}
bind def
/R { /dy exch def
/dx exch def
/y exch def
/x exch def
newpath
x y moveto
dx 0 rlineto
0 dy rlineto
dx neg 0 rlineto
closepath stroke
} bind def
/CL {
/dy exch def
/dx exch def
/y exch def
/x exch def
newpath
x y moveto
dx 0 rlineto
0 dy rlineto
dx neg 0 rlineto
closepath
clip
} bind def
/FR { /dy exch def
/dx exch def
/y exch def
/x exch def
currentlinewidth 0 setlinewidth newpath
x y moveto
dx 0 rlineto
0 dy rlineto
dx neg 0 rlineto
closepath fill setlinewidth
} bind def
/GS { gsave } bind  def
/GR { grestore } bind def
/SP { showpage } bind def
/LW { setlinewidth } bind def
/CF /Courier def
/SF { /CF exch def } bind def
/fsize 12 def
/FS { /fsize exch def fsize CF findfont exch scalefont setfont }def 
/GL { setgray } bind def
/SRGB { setrgbcolor } bind def
/CI { GS /py exch def /px exch def /sy exch def /sx exch def
translate 
sx sy scale px py 8 
[ px 0 0 py neg 0 py ]
currentfile /ASCIIHexDecode filter
 false 3 colorimage GR
} bind def
/GI { GS /py exch def /px exch def /sy exch def /sx exch def 
translate 
sx sy scale px py 8 
[ px 0 0 py neg 0 py ]
currentfile /ASCIIHexDecode filter
image GR
} bind def
/MI { GS /py exch def /px exch def /sy exch def /sx exch def 
translate 
sx sy scale px py true 
[ px 0 0 py neg 0 py ]
currentfile /ASCIIHexDecode filter
imagemask GR
} bind def
/BFP { newpath moveto }  def
/BP { newpath } bind def 
/PL { lineto } bind def 
/PM { moveto } bind def 
/MT { moveto } bind def 
/LT { lineto } bind def 
/EFP { closepath fill } bind def
/ELP { stroke } bind def
/ECP { closepath stroke } bind def
/LW { setlinewidth } bind def
/TR { translate } bind def
/CT { concat } bind def
/RCT { matrix invertmatrix concat} bind def
/SC { scale } bind def
/show_pos_width {GS moveto dup dup stringwidth pop exch length 2 div dup 2 le {pop 9999} if 1 sub exch 3 index exch sub exch div 0 2 index 1 -1 scale ashow pop pop GR} bind def
/CII {GS /inter exch def /py exch def /px exch def /sy exch def /sx exch def 
translate 
sx sy scale
/DeviceRGB setcolorspace
/IDD 8 dict def
IDD begin
/ImageType 1 def
/Width px def
/Height py def
/BitsPerComponent 8 def
/Interpolate inter def
/DataSource currentfile /ASCIIHexDecode filter def
/MultipleDataSources false def
/ImageMatrix [ px 0 0 py neg 0 py ] def
/Decode [ 0 1 0 1 0 1 ] def
end
IDD image GR} bind def
/GII {GS /inter exch def /py exch def /px exch def /sy exch def /sx exch def 
translate 
sx sy scale
/DeviceGray setcolorspace
/IDD 8 dict def
IDD begin
/ImageType 1 def
/Width px def
/Height py def
/BitsPerComponent 8 def
/Interpolate inter def
/DataSource currentfile /ASCIIHexDecode filter def
/MultipleDataSources false def
/ImageMatrix [ px 0 0 py neg 0 py ] def
/Decode [ 0 1 ] def
end
IDD image GR} bind def
/ToISO { dup findfont dup length dict copy begin /Encoding ISOLatin1Encoding def currentdict end definefont pop } def
/Helvetica ToISO /Helvetica-Bold ToISO /Helvetica-Oblique ToISO /Helvetica-BoldOblique ToISO 
/Courier ToISO /Courier-Bold ToISO /Courier-Oblique ToISO /Courier-BoldOblique ToISO 
/Times-Roman ToISO /Times-Bold ToISO /Times-Italic ToISO /Times-BoldItalic ToISO 
/LatinExtA 
[  /Amacron /amacron /Abreve /abreve /Aogonek /aogonek
 /Cacute  /cacute  /Ccircumflex  /ccircumflex  /Cdotaccent  /cdotaccent  /Ccaron  /ccaron 
 /Dcaron  /dcaron   /Dcroat  /dcroat
 /Emacron  /emacron  /Ebreve  /ebreve  /Edotaccent  /edotaccent  /Eogonek  /eogonek  /Ecaron  /ecaron
 /Gcircumflex  /gcircumflex  /Gbreve  /gbreve  /Gdotaccent  /gdotaccent  /Gcommaaccent  /gcommaaccent 
 /Hcircumflex /hcircumflex  /Hbar  /hbar  
 /Itilde  /itilde  /Imacron  /imacron  /Ibreve  /ibreve  /Iogonek  /iogonek /Idotaccent  /dotlessi  
 /IJ  /ij  /Jcircumflex  /jcircumflex
 /Kcommaaccent  /kcommaaccent  /kgreenlandic  
 /Lacute  /lacute  /Lcommaaccent  /lcommaaccent   /Lcaron  /lcaron  /Ldotaccent /ldotaccent   /Lslash  /lslash 
 /Nacute  /nacute  /Ncommaaccent  /ncommaaccent  /Ncaron  /ncaron  /napostrophe  /Eng  /eng  
 /Omacron  /omacron /Obreve  /obreve  /Ohungarumlaut  /ohungarumlaut  /OE  /oe 
 /Racute  /racute  /Rcommaaccent  /rcommaaccent  /Rcaron  /rcaron 
 /Sacute /sacute  /Scircumflex  /scircumflex  /Scedilla /scedilla /Scaron  /scaron 
 /Tcommaaccent  /tcommaaccent  /Tcaron  /tcaron  /Tbar  /tbar 
 /Utilde  /utilde /Umacron /umacron  /Ubreve  /ubreve  /Uring  /uring  /Uhungarumlaut  /uhungarumlaut  /Uogonek /uogonek 
 /Wcircumflex  /wcircumflex  /Ycircumflex  /ycircumflex  /Ydieresis 
 /Zacute /zacute /Zdotaccent /zdotaccent /Zcaron /zcaron 
 /longs 
 /florin  /circumflex  /caron  /breve  /dotaccent  /ring 
 /ogonek  /tilde  /hungarumlaut  /endash /emdash 
 /quoteleft  /quoteright  /quotesinglbase  /quotedblleft  /quotedblright 
 /quotedblbase  /dagger  /daggerdbl  /bullet  /ellipsis 
 /perthousand  /guilsinglleft  /guilsinglright  /fraction  /Euro 
 /trademark /partialdiff  /Delta /summation  /radical 
 /infinity /notequal /lessequal /greaterequal /lozenge 
 /fi /fl /apple 
 ] def 
 /mycharstrings /Helvetica findfont /CharStrings get def
 /PSname2 { dup mycharstrings exch known {LatinExtA 3 -1 roll 3 -1 roll put}{pop pop} ifelse } def 
 16#20 /Gdot PSname2 16#21 /gdot PSname2 16#30 /Idot PSname2 16#3F /Ldot PSname2 16#40 /ldot PSname2 16#7F /slong PSname2 
/ToLatinExtA { findfont dup length dict copy begin /Encoding LatinExtA def currentdict end definefont pop } def
/HelveticaExt /Helvetica ToLatinExtA 
/Helvetica-BoldExt /Helvetica-Bold ToLatinExtA /Helvetica-ObliqueExt /Helvetica-Oblique ToLatinExtA  
/Helvetica-BoldObliqueExt /Helvetica-BoldOblique ToLatinExtA  
/CourierExt /Courier ToLatinExtA /Courier-BoldExt /Courier-Bold ToLatinExtA  
/Courier-ObliqueExt /Courier-Oblique ToLatinExtA /Courier-BoldObliqueExt /Courier-BoldOblique ToLatinExtA 
/Times-RomanExt /Times-Roman ToLatinExtA /Times-BoldExt /Times-Bold ToLatinExtA  
/Times-ItalicExt /Times-Italic ToLatinExtA /Times-BoldItalicExt /Times-BoldItalic ToLatinExtA 
/To2byte { 6 dict begin /FontType 0 def 
/FDepVector 3 1 roll findfont exch findfont 2 array astore def 
/FontMatrix [1  0  0  1  0  0] def /FMapType 6 def /Encoding [ 0 1 0 ] def
/SubsVector < 01 0100 00A7 > def
currentdict end definefont pop } def
/Helvetica2B /HelveticaExt /Helvetica To2byte 
/Helvetica-Bold2B /Helvetica-BoldExt /Helvetica-Bold To2byte 
/Helvetica-Oblique2B /Helvetica-ObliqueExt /Helvetica-Oblique To2byte 
/Helvetica-BoldOblique2B /Helvetica-BoldObliqueExt /Helvetica-BoldOblique To2byte 
/Courier2B /CourierExt /Courier To2byte 
/Courier-Bold2B /Courier-BoldExt /Courier-Bold To2byte 
/Courier-Oblique2B /Courier-ObliqueExt /Courier-Oblique To2byte 
/Courier-BoldOblique2B /Courier-BoldObliqueExt /Courier-BoldOblique To2byte 
/Times-Roman2B /Times-RomanExt /Times-Roman To2byte 
/Times-Bold2B /Times-BoldExt /Times-Bold To2byte 
/Times-Italic2B /Times-ItalicExt /Times-Italic To2byte 
/Times-BoldItalic2B /Times-BoldItalicExt /Times-BoldItalic To2byte 
/pixmap_mat {[ pixmap_sx 0 0 pixmap_sy neg 0 pixmap_sy ]}  bind def
/pixmap_dict {<< /PatternType 1 /PaintType 1 /TilingType 2 /BBox [0  0  pixmap_sx  pixmap_sy] /XStep pixmap_sx /YStep pixmap_sy
/PaintProc { begin pixmap_w pixmap_h scale pixmap_sx pixmap_sy 8 pixmap_mat currentfile /ASCIIHexDecode filter false 3 colorimage end } bind >>
} bind def
/pixmap_plot {GS /pixmap_sy exch def /pixmap_sx exch def
/pixmap_h exch def /pixmap_w exch def
translate
pixmap_dict matrix makepattern setpattern
pixmap_w pixmap_h scale
pixmap_sx pixmap_sy
true
pixmap_mat
currentfile /ASCIIHexDecode filter
imagemask
GR
} bind def
/CS { GS } bind def
/CR { GR } bind def
%%EndProlog
<< /Policies << /Pagesize 1 >> >> setpagedevice
%%Page: 1 1
%%PageBoundingBox: 0 0 595 842
%%PageOrientation: Portrait
%%BeginPageSetup
%%EndPageSetup
save
GS
0 842 TR
1 -1 SC
1 setlinewidth
2 setlinecap
0 setlinejoin
[] 0 setdash
GS
GS
CS
GR GR GS 18 18 translate GS
%%PageBoundingBox: 0 0 595 842
/Times-Roman2B SF
12.6 FS
/Times-Roman2B SF
13.8 FS
CR
CS
0 GL
1 setlinewidth
2 setlinecap
0 setlinejoin
[] 0 setdash
/Times-Roman2B SF
13.8 FS
-0.5 -0.5 559 14 CL
0 GL
/Times-Roman2B SF
11.5 FS
240 <0053006500610076006900650077002000200020002000420069006F004E004A005F007400720065006500200020002000200046007200690020004A0075006C002000310037002000310034003A00340038003A0035003600200032003000310035> 0 10 show_pos_width
CR
CS
0 GL
1 setlinewidth
2 setlinecap
0 setlinejoin
[] 0 setdash
/Times-Roman2B SF
11.5 FS
CR
CS
0 GL
1 setlinewidth
2 setlinecap
0 setlinejoin
[] 0 setdash
/Times-Roman2B SF
11.5 FS
-0.5 13.5 559 792 CL
/Times-Roman2B SF
13.8 FS
0.752941 GL
GS
BP
0 14 MT
558 14 LT
558 805 LT
0 805 LT
ECP
GR
0 GL
267 <0058003100300042005F0046004A003200570059005F00300030003000330033005F00300030003600320035005F0031005F003100370032005F0031005F0030005F00320033> 88 801 show_pos_width
267 <0058003100300042005F0046004A003200570059005F00300030003700300037005F00300031003700390033005F0031005F003100370032005F0031005F0030005F00320033> 95 798 show_pos_width
267 <0058003100300042005F0046004A003200570059005F00300030003600310037005F00300031003000350039005F0031005F003100370032005F0031005F0030005F00320033> 100 794 show_pos_width
267 <0058003100300042005F0046004A003200570059005F00300030003200310031005F00300031003800360038005F0031005F003100370032005F0031005F0030005F00320033> 93 791 show_pos_width
267 <0058003100300042005F0046004A003200570059005F00300030003500370033005F00300033003100310031005F0031005F003100370032005F0031005F0030005F00320033> 90 787 show_pos_width
267 <0058003100300042005F0046004A003200570059005F00300031003500310039005F00300031003600340030005F0031005F003100370032005F0031005F0030005F00320033> 93 784 show_pos_width
267 <0058003100300042005F0046004A003200570059005F00300030003700310033005F00300030003100350034005F0031005F003100370031005F0031005F0030005F00320033> 95 780 show_pos_width
267 <0058003100300042005F0046004A003200570059005F00300030003300310037005F00300031003000310034005F0031005F003100370032005F0031005F0030005F00320033> 90 777 show_pos_width
267 <0058003100300042005F0046004A003200570059005F00300031003900390031005F00300031003600380033005F0031005F003100370032005F0031005F0030005F00320033> 93 773 show_pos_width
267 <0058003100300042005F0046004A003200570059005F00300030003700350033005F00300030003500300030005F0031005F003100370032005F0031005F0030005F00320033> 117 770 show_pos_width
267 <0058003100300042005F0046004A003200570059005F00300031003400370033005F00300032003700360031005F0031005F003100370033005F0031005F0030005F00320033> 109 766 show_pos_width
267 <0058003100300042005F0046004A003200570059005F00300030003400360033005F00300030003900380035005F0031005F003100370032005F0031005F0030005F00320033> 97 763 show_pos_width
267 <0058003100300042005F0046004A003200570059005F00300031003200300036005F00300032003200390033005F0031005F003100370032005F0031005F0030005F00320033> 100 759 show_pos_width
267 <0058003100300042005F0046004A003200570059005F00300031003300370030005F00300030003200330030005F0031005F003100370034005F0031005F0030005F00320035> 98 756 show_pos_width
267 <0058003100300042005F0046004A003200570059005F00300030003700360033005F00300031003500340038005F0031005F003100370032005F0031005F0030005F00320033> 93 752 show_pos_width
267 <0058003100300042005F0046004A003200570059005F00300031003200380033005F00300031003100380038005F0031005F003100370033005F0031005F0030005F00320033> 90 749 show_pos_width
267 <0058003100300043005F0046004A003200570059005F00300032003000360035005F00300033003000390036005F0031005F003100370032005F0031005F0030005F00320033> 120 745 show_pos_width
267 <0058003100300042005F0046004A003200570059005F00300031003200370034005F00300032003000390031005F0031005F003100370032005F0031005F0030005F00320033> 110 742 show_pos_width
267 <0058003100300042005F0046004A003200570059005F00300030003800360033005F00300030003400350034005F0031005F003100370031005F0031005F0030005F00320033> 107 738 show_pos_width
267 <0058003100300042005F0046004A003200570059005F00300030003800350039005F00300032003600340032005F0031005F003100370032005F0031005F0030005F00320033> 97 735 show_pos_width
267 <0058003100300042005F0046004A003200570059005F00300031003400310038005F00300032003600370034005F0031005F003100370034005F0031005F0030005F00320033> 97 731 show_pos_width
267 <0058003100300042005F0046004A003200570059005F00300030003600340032005F00300030003400310034005F0031005F003100370032005F0031005F0030005F00320033> 98 728 show_pos_width
267 <0058003100300042005F0046004A003200570059005F00300030003300300038005F00300031003600320033005F0031005F003100370032005F0031005F0030005F00320033> 102 724 show_pos_width
267 <0058003100300042005F0046004A003200570059005F00300030003200320031005F00300031003400300033005F0031005F003100370032005F0031005F0030005F00320033> 93 721 show_pos_width
267 <0058003100300042005F0046004A003200570059005F00300031003300370035005F00300033003000350039005F0031005F003100370032005F0031005F0030005F00320033> 90 717 show_pos_width
267 <0058003100300042005F0046004A003200570059005F00300030003200350030005F00300031003200310032005F0031005F003100370031005F0031005F0030005F00320032> 100 714 show_pos_width
267 <0058003100300042005F0046004A003200570059005F00300032003100310033005F00300032003100320035005F0031005F003100370032005F0031005F0030005F00320033> 93 710 show_pos_width
267 <0058003100300042005F0046004A003200570059005F00300031003800390038005F00300031003800310034005F0031005F003100370031005F0031005F0030005F00320033> 100 707 show_pos_width
267 <0058003100300042005F0046004A003200570059005F00300030003400380036005F00300032003900330032005F0031005F003100370031005F0031005F0030005F00320033> 90 703 show_pos_width
267 <0058003100300042005F0046004A003200570059005F00300030003200370039005F00300031003600300039005F0031005F003100370031005F0031005F0030005F00320033> 90 700 show_pos_width
267 <0058003100300042005F0046004A003200570059005F00300030003000370038005F00300031003300300039005F0031005F003100370031005F0031005F0030005F00320033> 90 696 show_pos_width
267 <0058003100300042005F0046004A003200570059005F00300030003400380036005F00300030003600300033005F0031005F003100370032005F0031005F0030005F00320032> 110 693 show_pos_width
267 <0058003100300042005F0046004A003200570059005F00300030003400300031005F00300030003700340031005F0031005F003100370031005F0031005F0030005F00320033> 90 689 show_pos_width
267 <0058003100300042005F0046004A003200570059005F00300030003400310030005F00300030003500380037005F0031005F003100370032005F0031005F0030005F00320033> 105 686 show_pos_width
267 <0058003100300042005F0046004A003200570059005F00300031003000390031005F00300032003400310035005F0031005F003100370032005F0031005F0030005F00320033> 100 682 show_pos_width
267 <0058003100300042005F0046004A003200570059005F00300031003000370032005F00300032003900300037005F0031005F003100370032005F0031005F0030005F00320033> 95 679 show_pos_width
267 <0058003100300042005F0046004A003200570059005F00300030003600310031005F00300030003400360030005F0031005F003100370032005F0031005F0030005F00320033> 105 675 show_pos_width
267 <0058003100300042005F0046004A003200570059005F00300030003800350031005F00300032003000350035005F0031005F003100370031005F0031005F0030005F00320033> 102 672 show_pos_width
267 <0058003100300042005F0046004A003200570059005F00300031003900350033005F00300032003600340032005F0031005F003100370033005F0031005F0030005F00320033> 109 668 show_pos_width
267 <0058003100300042005F0046004A003200570059005F00300030003200360038005F00300031003300390037005F0031005F003100380031005F0031005F0030005F00320033> 100 665 show_pos_width
267 <0058003100300042005F0046004A003200570059005F00300030003600350034005F00300031003600380039005F0031005F003100370031005F0031005F0030005F00320032> 100 661 show_pos_width
267 <0058003100300042005F0046004A003200570059005F00300031003300350032005F00300033003200380030005F0031005F003100370031005F0031005F0030005F00320033> 95 658 show_pos_width
267 <0058003100300042005F0046004A003200570059005F00300030003500310037005F00300030003100300035005F0031005F003100370033005F0031005F0030005F00320033> 100 654 show_pos_width
267 <0058003100300042005F0046004A003200570059005F00300031003700300035005F00300030003600300038005F0031005F003100370034005F0031005F0030005F00320033> 107 651 show_pos_width
267 <0058003100300042005F0046004A003200570059005F00300030003700350038005F00300031003200300039005F0031005F003100370032005F0031005F0030005F00320033> 95 647 show_pos_width
267 <0058003100300042005F0046004A003200570059005F00300031003200340035005F00300031003800320039005F0031005F003100370032005F0031005F0030005F00320033> 102 644 show_pos_width
267 <0058003100300042005F0046004A003200570059005F00300030003600390035005F00300030003900360035005F0031005F003100370032005F0031005F0030005F00320033> 95 640 show_pos_width
267 <0058003100300042005F0046004A003200570059005F00300030003700310039005F00300032003600390032005F0031005F003100370032005F0031005F0030005F00320033> 90 637 show_pos_width
267 <0058003100300042005F0046004A003200570059005F00300031003200380033005F00300032003500350038005F0031005F003100370032005F0031005F0030005F00320033> 102 633 show_pos_width
267 <0058003100300042005F0046004A003200570059005F00300031003300380034005F00300031003300320036005F0031005F003100370032005F0031005F0030005F00320033> 90 630 show_pos_width
267 <0058003100300042005F0046004A003200570059005F00300031003200390030005F00300032003100310039005F0031005F003100370032005F0031005F0030005F00320033> 97 626 show_pos_width
267 <0058003100300042005F0046004A003200570059005F00300031003000330034005F00300031003200380032005F0031005F003100370032005F0031005F0030005F00320033> 90 623 show_pos_width
267 <0058003100300042005F0046004A003200570059005F00300031003000390033005F00300031003800380035005F0031005F003100370032005F0031005F0030005F00320033> 107 619 show_pos_width
267 <0058003100300042005F0046004A003200570059005F00300030003300330032005F00300030003700390037005F0031005F003100370031005F0031005F0030005F00320033> 93 616 show_pos_width
267 <0058003100300042005F0046004A003200570059005F00300031003400370039005F00300031003800380033005F0031005F003100370032005F0031005F0030005F00320033> 97 612 show_pos_width
267 <0058003100300042005F0046004A003200570059005F00300031003400360035005F00300030003500370039005F0031005F003100370032005F0031005F0030005F00320033> 93 609 show_pos_width
267 <0058003100300042005F0046004A003200570059005F00300032003000330032005F00300030003900380039005F0031005F003100370031005F0031005F0030005F00320033> 105 605 show_pos_width
267 <0058003100300042005F0046004A003200570059005F00300030003600390030005F00300032003000330039005F0031005F003100370032005F0031005F0030005F00320033> 100 602 show_pos_width
267 <0058003100300042005F0046004A003200570059005F00300030003800310030005F00300031003100360033005F0031005F003100370032005F0031005F0030005F00320033> 105 598 show_pos_width
267 <0058003100300042005F0046004A003200570059005F00300030003600350032005F00300031003200330031005F0031005F003100370032005F0031005F0030005F00320033> 93 595 show_pos_width
267 <0058003100300042005F0046004A003200570059005F00300031003900310034005F00300032003200380038005F0031005F003100370032005F0031005F0030005F00320033> 95 591 show_pos_width
267 <0058003100300042005F0046004A003200570059005F00300031003200330031005F00300031003300380031005F0031005F003100370031005F0031005F0030005F00320033> 102 588 show_pos_width
267 <0058003100300042005F0046004A003200570059005F00300030003500310039005F00300033003000360031005F0031005F003100370032005F0031005F0030005F00320033> 107 584 show_pos_width
267 <0058003100300042005F0046004A003200570059005F00300031003400390031005F00300031003700310032005F0031005F003100370032005F0031005F0030005F00320033> 100 581 show_pos_width
267 <0058003100300042005F0046004A003200570059005F00300030003400370036005F00300032003200300033005F0031005F003100370032005F0031005F0030005F00320033> 98 577 show_pos_width
267 <0058003100300042005F0046004A003200570059005F00300030003200320036005F00300030003600330035005F0031005F003100370031005F0031005F0030005F00320033> 100 574 show_pos_width
267 <0058003100300042005F0046004A003200570059005F00300030003700340037005F00300031003500380030005F0031005F003100370032005F0031005F0030005F00320033> 105 570 show_pos_width
267 <0058003100300042005F0046004A003200570059005F00300030003400390033005F00300032003800360032005F0031005F003100370033005F0031005F0030005F00320033> 100 567 show_pos_width
267 <0058003100300042005F0046004A003200570059005F00300031003800330038005F00300031003900330033005F0031005F003100370032005F0031005F0030005F00320033> 95 563 show_pos_width
267 <0058003100300042005F0046004A003200570059005F00300031003200320038005F00300033003000360035005F0031005F003100370032005F0031005F0030005F00320033> 105 560 show_pos_width
267 <0058003100300042005F0046004A003200570059005F00300031003200340038005F00300030003100350037005F0031005F003100370032005F0031005F0030005F00320033> 100 556 show_pos_width
267 <0058003100300042005F0046004A003200570059005F00300031003600330030005F00300031003600350032005F0031005F003100370032005F0031005F0030005F00320033> 97 553 show_pos_width
267 <0058003100300042005F0046004A003200570059005F00300030003400390034005F00300032003700370034005F0031005F003100370032005F0031005F0030005F00320033> 91 549 show_pos_width
267 <0058003100300042005F0046004A003200570059005F00300030003200300033005F00300030003200360035005F0031005F003100370031005F0031005F0030005F00320033> 100 546 show_pos_width
267 <0058003100300042005F0046004A003200570059005F00300030003900300032005F00300030003100360030005F0031005F003100370034005F0031005F0030005F00320034> 95 542 show_pos_width
267 <0058003100300042005F0046004A003200570059005F00300030003700360031005F00300032003500300037005F0031005F003100370032005F0031005F0030005F00320033> 102 539 show_pos_width
267 <0058003100300042005F0046004A003200570059005F00300031003200310039005F00300031003200360036005F0031005F003100370032005F0031005F0030005F00320033> 93 535 show_pos_width
267 <0058003100300042005F0046004A003200570059005F00300031003100350038005F00300031003700340036005F0031005F003100370032005F0031005F0030005F00320033> 102 532 show_pos_width
267 <0058003100300042005F0046004A003200570059005F00300030003100320035005F00300031003400310032005F0031005F003100370032005F0031005F0030005F00320033> 91 528 show_pos_width
267 <0058003100300042005F0046004A003200570059005F00300030003200360033005F00300031003200390037005F0031005F003100370032005F0031005F0030005F00320033> 98 525 show_pos_width
267 <0058003100300042005F0046004A003200570059005F00300031003100330032005F00300032003800360039005F0031005F003100370032005F0031005F0030005F00320033> 97 521 show_pos_width
267 <0058003100300042005F0046004A003200570059005F00300030003000350033005F00300031003000380035005F0031005F003100370032005F0031005F0030005F00320033> 97 518 show_pos_width
267 <0058003100300045005F0046004A003200570059005F00300031003000350036005F00300031003200360036005F0031005F003100370032005F0031005F0030005F00320033> 100 514 show_pos_width
267 <0058003100300045005F0046004A003200570059005F00300030003400320037005F00300030003200390036005F0031005F003100370033005F0031005F0030005F00320034> 98 511 show_pos_width
267 <0058003100300045005F0046004A003200570059005F00300030003800380034005F00300032003800380038005F0031005F003100370031005F0031005F0030005F00320033> 95 507 show_pos_width
267 <0058003100300045005F0046004A003200570059005F00300032003000310039005F00300032003800300036005F0031005F003100370033005F0031005F0030005F00320033> 106 504 show_pos_width
267 <0058003100300042005F0046004A003200570059005F00300030003700320033005F00300030003000380032005F0031005F003100370031005F0031005F0030005F00320034> 109 500 show_pos_width
267 <0058003100300042005F0046004A003200570059005F00300030003600390034005F00300030003500300030005F0031005F003100370031005F0031005F0030005F00320033> 92 497 show_pos_width
267 <0058003100300042005F0046004A003200570059005F00300030003500330037005F00300032003400380034005F0031005F003100370032005F0031005F0030005F00320033> 98 493 show_pos_width
267 <0058003100300042005F0046004A003200570059005F00300031003800380038005F00300032003500360030005F0031005F003100370032005F0031005F0030005F00320033> 90 490 show_pos_width
267 <0058003100300042005F0046004A003200570059005F00300030003400340036005F00300031003200380031005F0031005F003100370031005F0031005F0030005F00320033> 100 486 show_pos_width
267 <0058003100300042005F0046004A003200570059005F00300031003500370038005F00300032003900340031005F0031005F003100370032005F0031005F0030005F00320033> 107 483 show_pos_width
267 <0058003100300042005F0046004A003200570059005F00300030003600310030005F00300033003000310032005F0031005F003100370032005F0031005F0030005F00320033> 105 479 show_pos_width
267 <0058003100300042005F0046004A003200570059005F00300030003200310033005F00300030003300300038005F0031005F003100370032005F0031005F0030005F00320033> 107 476 show_pos_width
267 <0058003100300042005F0046004A003200570059005F00300030003800390031005F00300031003600300031005F0031005F003100370033005F0031005F0030005F00320033> 97 472 show_pos_width
267 <0058003100300042005F0046004A003200570059005F00300030003300390036005F00300030003100320034005F0031005F003100370032005F0031005F0030005F00320033> 95 469 show_pos_width
267 <0058003100300042005F0046004A003200570059005F00300030003800330035005F00300032003000390036005F0031005F003100370031005F0031005F0030005F00320033> 93 465 show_pos_width
267 <0058003100300042005F0046004A003200570059005F00300031003300370033005F00300030003700340039005F0031005F003100370032005F0031005F0030005F00320033> 95 462 show_pos_width
267 <0058003100300042005F0046004A003200570059005F00300031003900390038005F00300032003500370032005F0031005F003100370034005F0031005F0030005F00320033> 95 458 show_pos_width
267 <0058003100300042005F0046004A003200570059005F00300031003300300030005F00300033003300330033005F0031005F003100370033005F0031005F0030005F00320033> 90 455 show_pos_width
267 <0058003100300042005F0046004A003200570059005F00300030003400360039005F00300030003600310032005F0031005F003100370032005F0031005F0030005F00320033> 95 451 show_pos_width
267 <0058003100300043005F0046004A003200570059005F00300031003600380034005F00300031003900340030005F0031005F003100370032005F0031005F0030005F00320033> 102 448 show_pos_width
267 <0058003100300042005F0046004A003200570059005F00300030003200310039005F00300030003400310035005F0031005F003100370032005F0031005F0030005F00320033> 90 444 show_pos_width
267 <0058003100300042005F0046004A003200570059005F00300031003100370033005F00300031003300310036005F0031005F003100370033005F0031005F0030005F00320034> 101 441 show_pos_width
267 <0058003100300042005F0046004A003200570059005F00300030003100350036005F00300032003500350033005F0031005F003100370031005F0031005F0030005F00320033> 102 437 show_pos_width
267 <0058003100300042005F0046004A003200570059005F00300030003700300033005F00300032003200380030005F0031005F003100370032005F0031005F0030005F00320033> 92 434 show_pos_width
267 <0058003100300042005F0046004A003200570059005F00300031003800340031005F00300033003200330037005F0031005F003100370031005F0031005F0030005F00320033> 88 430 show_pos_width
267 <0058003100300043005F0046004A003200570059005F00300030003500380039005F00300031003700390031005F0031005F003100370033005F0031005F0030005F00320033> 91 427 show_pos_width
267 <0058003100300043005F0046004A003200570059005F00300030003900360033005F00300033003100300038005F0031005F003100370032005F0031005F0030005F00320033> 98 423 show_pos_width
267 <0058003100300043005F0046004A003200570059005F00300031003800310037005F00300032003300350035005F0031005F003100370032005F0031005F0030005F00320033> 93 420 show_pos_width
267 <0058003100300043005F0046004A003200570059005F00300030003600360036005F00300032003400300039005F0031005F003100370031005F0031005F0030005F00320032> 106 416 show_pos_width
267 <0058003100300043005F0046004A003200570059005F00300031003200300039005F00300030003600380030005F0031005F003100370032005F0031005F0030005F00320033> 93 413 show_pos_width
267 <0058003100300043005F0046004A003200570059005F00300030003200340033005F00300030003500370030005F0031005F003100370032005F0031005F0030005F00320033> 100 409 show_pos_width
267 <0058003100300043005F0046004A003200570059005F00300031003300310037005F00300031003200390037005F0031005F003100370032005F0031005F0030005F00320033> 93 406 show_pos_width
267 <0058003100300042005F0046004A003200570059005F00300030003800380033005F00300032003200380031005F0031005F003100370033005F0031005F0030005F00320033> 108 402 show_pos_width
267 <0058003100300041005F0046004A003200570059005F00300031003700350032005F00300031003500370035005F0031005F003100370031005F0031005F0030005F00320033> 104 399 show_pos_width
267 <0058003100300041005F0046004A003200570059005F00300031003100300030005F00300031003700390032005F0031005F003100370031005F0031005F0030005F00320033> 114 395 show_pos_width
344 <0063006800720036005F00360031003900330032003200390036005F00360031003900340033003400310038005F0031005F0035003400320039005F0035003600300030005F00660061006D005F0031005F00660061006D005F0042> 51 392 show_pos_width
345 <0063006800720058005F00350038003300360036003800330034005F00350038003300370033003500390036005F0031005F0032003000340032005F0032003200310033005F00660061006D005F0031005F00660061006D005F0042> 82 388 show_pos_width
352 <00630068007200310031005F00350030003300340039003200360037005F00350030003300350039003000380039005F0031005F0032003400370034005F0032003600340034005F00660061006D005F0031005F00660061006D005F0042> 60 385 show_pos_width
349 <0063006800720058005F00360031003900370039003200330038005F00360031003900380035003600320037005F002D0031005F0035003100390030005F0035003300360031005F00660061006D005F0034005F00660061006D005F0042> 91 381 show_pos_width
336 <00630068007200310039005F00320038003000370036003300320039005F00320038003000370038003100380031005F0031005F003100330039005F003300310032005F00660061006D005F0034005F00660061006D005F0042> 93 378 show_pos_width
328 <0063006800720038005F00340033003600360036003300380033005F00340033003600360037003200320036005F0031005F003500310032005F003600380031005F00660061006D005F0034005F00660061006D005F0042> 91 374 show_pos_width
344 <0063006800720038005F00340033003700300030003200340034005F00340033003700300032003200320035005F0031005F0031003600340036005F0031003800310033005F00660061006D005F0034005F00660061006D005F0042> 114 371 show_pos_width
328 <0063006800720038005F00340033003600350037003000390036005F00340033003600350039003900370037005F0031005F003600370037005F003800340037005F00660061006D005F0034005F00660061006D005F0042> 88 367 show_pos_width
345 <0063006800720058005F00350038003300340037003800320039005F00350038003300350031003300330030005F0031005F0031003900350039005F0032003100330031005F00660061006D005F0034005F00660061006D005F0042> 119 364 show_pos_width
344 <0063006800720038005F00340033003400380036003000310030005F00340033003400390030003000350034005F0031005F0032003300360033005F0032003500330031005F00660061006D005F0034005F00660061006D005F0042> 88 360 show_pos_width
344 <0063006800720038005F00340033003400350038003300320033005F00340033003400360032003300380031005F0031005F0032003100370035005F0032003300340036005F00660061006D005F0034005F00660061006D005F0042> 83 357 show_pos_width
345 <0063006800720058005F00350038003300320031003100390035005F00350038003300320034003700310030005F0031005F0031003100320032005F0031003200380039005F00660061006D005F0034005F00660061006D005F0042> 112 353 show_pos_width
340 <00630068007200310036005F00330035003100350030003400320031005F00330035003100350031003400340032005F002D0031005F003300340032005F003500310032005F00660061006D005F0034005F00660061006D005F0042> 127 350 show_pos_width
336 <00630068007200310036005F00330034003900330037003900370033005F00330034003900330038003700350033005F0031005F003400380039005F003600360030005F00660061006D005F0034005F00660061006D005F0042> 141 346 show_pos_width
332 <0063006800720033005F00380030003900390038003300330034005F00380030003900390038003900390039005F002D0031005F003300320034005F003400390035005F00660061006D005F0034005F00660061006D005F0042> 116 343 show_pos_width
349 <0063006800720058005F00360031003900380037003500320031005F00360031003900380039003900310034005F002D0031005F0031003700310033005F0031003800380033005F00660061006D005F0034005F00660061006D005F0042> 91 339 show_pos_width
328 <0063006800720038005F00340033003600350037003000390036005F00340033003600350039003900370037005F0031005F003100360033005F003300330034005F00660061006D005F0034005F00660061006D005F0042> 93 336 show_pos_width
356 <00630068007200310032005F00330034003700330037003800310030005F00330034003700340035003100340031005F002D0031005F0032003400330033005F0032003600300032005F00660061006D005F0031005F00660061006D005F0042> 88 332 show_pos_width
345 <0063006800720058005F00350038003300370033003700370031005F00350038003300390032003600320031005F0031005F0033003500360036005F0033003700330036005F00660061006D005F0031005F00660061006D005F0042> 131 329 show_pos_width
356 <00630068007200310032005F00330034003500390039003900350031005F00330034003600300036003100350039005F002D0031005F0031003400380030005F0031003600350030005F00660061006D005F0031005F00660061006D005F0042> 122 325 show_pos_width
348 <0063006800720036005F00350038003700330035003400310035005F00350038003700330038003900370033005F002D0031005F0032003700300031005F0032003800370032005F00660061006D005F0031005F00660061006D005F0042> 107 322 show_pos_width
332 <0063006800720038005F00340037003400320033003000370030005F00340037003400320033003800340032005F002D0031005F003100320031005F003200390032005F00660061006D005F0034005F00660061006D005F0042> 89 318 show_pos_width
332 <0063006800720038005F00340037003400310036003600390035005F00340037003400310038003500350034005F002D0031005F003600360030005F003800330031005F00660061006D005F0034005F00660061006D005F0042> 135 315 show_pos_width
344 <0063006800720037005F00360032003400340037003700330031005F00360032003400350032003800350030005F0031005F0034003400360038005F0034003600330039005F00660061006D005F0031005F00660061006D005F0042> 114 311 show_pos_width
332 <0063006800720038005F00340037003200310034003600370037005F00340037003200310038003100380037005F002D0031005F003400310035005F003500380038005F00660061006D005F0034005F00660061006D005F0042> 113 308 show_pos_width
348 <0063006800720037005F00360031003800350039003300320033005F00360031003800370031003500360034005F002D0031005F0038003000340031005F0038003200300039005F00660061006D005F0031005F00660061006D005F0042> 103 304 show_pos_width
356 <00630068007200310031005F00350031003300360030003600350035005F00350031003300370030003000340037005F002D0031005F0038003100380033005F0038003300340035005F00660061006D005F0031005F00660061006D005F0042> 83 301 show_pos_width
352 <00630068007200310031005F00350030003300360030003400350038005F00350030003300360037003000330032005F0031005F0033003600350036005F0033003800320038005F00660061006D005F0031005F00660061006D005F0042> 109 297 show_pos_width
352 <00630068007200310031005F00350030003300360030003400350038005F00350030003300360037003000330032005F0031005F0032003900360037005F0033003100330039005F00660061006D005F0031005F00660061006D005F0042> 81 294 show_pos_width
352 <00630068007200310031005F00350030003400380036003300390036005F00350030003400380039003800380033005F0031005F0031003700360035005F0031003900330033005F00660061006D005F0031005F00660061006D005F0042> 72 290 show_pos_width
344 <0063006800720037005F00360032003400310033003400320034005F00360032003400320032003200380033005F0031005F0035003700380030005F0035003900350030005F00660061006D005F0031005F00660061006D005F0042> 78 287 show_pos_width
348 <0063006800720035005F00340036003100370034003500310032005F00340036003100380033003700380034005F002D0031005F0038003200330039005F0038003400300038005F00660061006D005F0031005F00660061006D005F0042> 101 283 show_pos_width
356 <00630068007200310031005F00350030003500300031003000330039005F00350030003500300035003600340031005F002D0031005F0033003900320031005F0034003000390030005F00660061006D005F0031005F00660061006D005F0042> 100 280 show_pos_width
348 <0063006800720035005F00340035003900310030003800350038005F00340035003900310034003900350039005F002D0031005F0032003200310032005F0032003300380033005F00660061006D005F0031005F00660061006D005F0042> 95 276 show_pos_width
352 <00630068007200310031005F00350030003500380033003300350036005F00350030003500380036003700300034005F0031005F0033003000330034005F0033003200300035005F00660061006D005F0031005F00660061006D005F0042> 80 273 show_pos_width
356 <00630068007200310031005F00350030003400390034003000360033005F00350030003400390037003100390039005F002D0031005F0031003100370032005F0031003300340033005F00660061006D005F0031005F00660061006D005F0042> 89 269 show_pos_width
344 <0063006800720035005F00340036003100360030003700310035005F00340036003100360033003800360032005F0031005F0032003400360035005F0032003600330036005F00660061006D005F0031005F00660061006D005F0042> 65 266 show_pos_width
340 <00630068007200310030005F00340032003400350035003000310031005F00340032003400350038003100300035005F002D0031005F003100370033005F003300340033005F00660061006D005F0031005F00660061006D005F0042> 84 262 show_pos_width
328 <0063006800720035005F00340036003200320038003400360031005F00340036003200330031003900350035005F0031005F003500380033005F003700350032005F00660061006D005F0031005F00660061006D005F0042> 61 259 show_pos_width
352 <00630068007200310031005F00350034003700340035003000320033005F00350034003700350032003800340033005F0031005F0032003800360037005F0033003000330038005F00660061006D005F0031005F00660061006D005F0042> 81 255 show_pos_width
356 <00630068007200310030005F00340032003400340032003200390039005F00340032003400350034003800320035005F002D0031005F0031003300300036005F0031003400370036005F00660061006D005F0031005F00660061006D005F0042> 65 252 show_pos_width
336 <00630068007200310031005F00350034003700340035003000320033005F00350034003700350032003800340033005F0031005F003300340031005F003500310034005F00660061006D005F0031005F00660061006D005F0042> 58 248 show_pos_width
356 <00630068007200310032005F00330034003600300037003100300036005F00330034003600310034003000310033005F002D0031005F0035003200310031005F0035003300380030005F00660061006D005F0031005F00660061006D005F0042> 78 245 show_pos_width
352 <00630068007200310031005F00350031003200300031003500360033005F00350031003200300035003800300032005F0031005F0033003700330032005F0033003900300032005F00660061006D005F0031005F00660061006D005F0042> 65 241 show_pos_width
356 <00630068007200310031005F00350031003200330030003600380039005F00350031003200330037003400390031005F002D0031005F0036003200390033005F0036003400360033005F00660061006D005F0031005F00660061006D005F0042> 59 238 show_pos_width
369 <00630068007200310031005F00350030003600330036003000310030005F00350030003600350033003500390036005F0031005F00310031003100390033005F00310031003300360031005F00660061006D005F0032005F00660061006D005F0044> 77 234 show_pos_width
365 <0063006800720059005F00310030003000350039003300390037005F00310030003000370033003600390034005F002D0031005F00310031003200370038005F00310031003400340037005F00660061006D005F0032005F00660061006D005F0044> 84 231 show_pos_width
362 <0063006800720058005F00360031003800360032003700360032005F00360031003800370036003900340035005F0031005F00310030003800310036005F00310030003900380035005F00660061006D005F0032005F00660061006D005F0044> 120 227 show_pos_width
345 <0063006800720039005F00370030003000360033003500370037005F00370030003000370034003200360036005F0031005F0036003200360037005F0036003400330037005F00660061006D005F0032005F00660061006D005F0044> 81 224 show_pos_width
333 <0063006800720035005F00340039003500320030003100320038005F00340039003500320035003800390032005F002D0031005F003100370032005F003300340032005F00660061006D005F0032005F00660061006D005F0044> 77 220 show_pos_width
349 <0063006800720035005F00340039003400370035003200360038005F00340039003400380036003300310034005F002D0031005F0036003800310035005F0036003900380035005F00660061006D005F0032005F00660061006D005F0044> 88 217 show_pos_width
353 <00630068007200310032005F00330038003100300036003800370032005F00330038003100330031003800380039005F0031005F0038003600310036005F0038003700380035005F00660061006D005F0032005F00660061006D005F0044> 91 213 show_pos_width
353 <00630068007200310036005F00330035003200360034003300300039005F00330035003200380031003500370033005F0031005F0039003500380031005F0039003700350030005F00660061006D005F0032005F00660061006D005F0044> 111 210 show_pos_width
373 <00630068007200310035005F00320030003000300030003000300034005F00320030003000320032003100320034005F002D0031005F00310035003900320036005F00310036003000390036005F00660061006D005F0032005F00660061006D005F0044> 84 206 show_pos_width
324 <00630068007200310036005F00330034003000300033003700310039005F00330034003000310036003700370033005F002D0031005F0031005F003100370031005F00660061006D005F0032005F00660061006D005F0041> 117 203 show_pos_width
353 <00630068007200310039005F00320037003800360037003100350039005F00320037003800380032003900370038005F0031005F0034003600300037005F0034003700370037005F00660061006D005F0032005F00660061006D005F0044> 78 199 show_pos_width
365 <0063006800720037005F00350037003900380038003500370038005F00350038003000300031003800350031005F002D0031005F00310032003500390034005F00310032003700360033005F00660061006D005F0032005F00660061006D005F0044> 79 196 show_pos_width
361 <0063006800720039005F00360036003800330039003600300030005F00360036003800350038003000310033005F0031005F00310032003300320033005F00310032003400390031005F00660061006D005F0032005F00660061006D005F0044> 87 192 show_pos_width
362 <0063006800720058005F00360031003800380032003400370035005F00360031003900310032003500300035005F0031005F00320031003600390038005F00320031003800360039005F00660061006D005F0032005F00660061006D005F0044> 88 189 show_pos_width
349 <0063006800720037005F00360032003000330031003100360035005F00360032003000340037003900370033005F002D0031005F0036003700310034005F0036003800380033005F00660061006D005F0032005F00660061006D005F0044> 69 185 show_pos_width
362 <0063006800720058005F00360031003800380032003400370035005F00360031003900310032003500300035005F0031005F00310031003000340035005F00310031003200310035005F00660061006D005F0032005F00660061006D005F0044> 85 182 show_pos_width
349 <0063006800720033005F00390030003300380039003200380039005F00390030003400310038003500320033005F002D0031005F0039003500300037005F0039003600370035005F00660061006D005F0032005F00660061006D005F0044> 95 178 show_pos_width
329 <00630068007200310036005F00330033003900380031003400370037005F00330033003900380033003600380036005F0031005F00380034005F003200350035005F00660061006D005F0032005F00660061006D005F0044> 96 175 show_pos_width
365 <0063006800720032005F003100330033003000300035003000340037005F003100330033003000300037003900350036005F002D0031005F0031003800380039005F0032003000350039005F00660061006D005F0032005F00660061006D005F0044> 72 171 show_pos_width
365 <0063006800720037005F00360031003400330034003000340037005F00360031003400340036003400300032005F002D0031005F00310030003500350039005F00310030003700320039005F00660061006D005F0032005F00660061006D005F0044> 76 168 show_pos_width
369 <00630068007200310030005F00340032003300390037003800310034005F00340032003400320031003500340032005F0031005F00310034003100340032005F00310034003300310032005F00660061006D005F0032005F00660061006D005F0044> 86 164 show_pos_width
357 <00630068007200310031005F00350034003900300036003300330035005F00350034003900310039003600310036005F002D0031005F0035003500370038005F0035003700340039005F00660061006D005F0032005F00660061006D005F0044> 83 161 show_pos_width
341 <00630068007200310031005F00350034003900310039003900300030005F00350034003900330034003400330037005F002D0031005F003100360035005F003300330035005F00660061006D005F0032005F00660061006D005F0044> 92 157 show_pos_width
362 <0063006800720058005F00360031003800380032003400370035005F00360031003900310032003500300035005F0031005F00310030003300350038005F00310030003500320038005F00660061006D005F0032005F00660061006D005F0044> 87 154 show_pos_width
353 <00630068007200310032005F00330038003100370033003000330034005F00330038003100370038003700350032005F0031005F0035003000350033005F0035003200320033005F00660061006D005F0032005F00660061006D005F0044> 98 150 show_pos_width
353 <00630068007200310030005F00340032003400320032003700360030005F00340032003400330034003000300036005F0031005F0035003000330034005F0035003200300039005F00660061006D005F0032005F00660061006D005F0044> 98 147 show_pos_width
352 <00630068007200310039005F00320037003700330031003800330030005F00320037003700340031003600380037005F0031005F0039003100380030005F0039003300350031005F00660061006D005F0033005F00660061006D005F0041> 96 143 show_pos_width
360 <0063006800720039005F00360036003700360037003800370039005F00360036003800320036003600320035005F0031005F00350032003100350039005F00350032003300320039005F00660061006D005F0033005F00660061006D005F0041> 85 140 show_pos_width
372 <00630068007200310034005F00310039003000300030003000300031005F00310039003000340038003800340033005F002D0031005F00340035003600380038005F00340035003800350038005F00660061006D005F0033005F00660061006D005F0041> 91 136 show_pos_width
360 <0063006800720039005F00360039003600380039003700390034005F00360039003700310031003300380036005F0031005F00320030003000370039005F00320030003200340039005F00660061006D005F0033005F00660061006D005F0041> 78 133 show_pos_width
360 <0063006800720032005F00390032003200370034003400350037005F00390032003300320036003100370031005F0031005F00340036003800360039005F00340037003000330039005F00660061006D005F0033005F00660061006D005F0041> 117 129 show_pos_width
368 <00630068007200320030005F00320036003200380035003400340038005F00320036003300310039003400380037005F0031005F00320034003700390033005F00320034003900360033005F00660061006D005F0033005F00660061006D005F0041> 61 126 show_pos_width
349 <0063006800720059005F00310030003000380034003400330039005F00310030003100300034003500330039005F002D0031005F0034003400340031005F0034003600300037005F00660061006D005F0032005F00660061006D005F0044> 84 122 show_pos_width
349 <0063006800720058005F00360031003700340032003600300030005F00360031003700340038003900340033005F002D0031005F0033003000340039005F0033003200310039005F00660061006D005F0033005F00660061006D005F0041> 85 119 show_pos_width
344 <0063006800720038005F00340036003800360034003200330032005F00340036003800370037003500350033005F0031005F0035003700320039005F0035003800390039005F00660061006D005F0033005F00660061006D005F0041> 104 115 show_pos_width
352 <00630068007200320030005F00320036003200370031003400360035005F00320036003200380031003700320035005F0031005F0034003100380039005F0034003300350039005F00660061006D005F0033005F00660061006D005F0041> 105 112 show_pos_width
372 <00630068007200310031005F00350031003500360037003200340038005F00350031003500390034003100380035005F002D0031005F00310035003100330033005F00310035003300300033005F00660061006D005F0033005F00660061006D005F0041> 88 108 show_pos_width
345 <0063006800720058005F00360031003800310034003400320032005F00360031003800360031003600320036005F0031005F0033003100380032005F0033003300350032005F00660061006D005F0033005F00660061006D005F0041> 79 105 show_pos_width
352 <00630068007200310039005F00320037003700330031003800330030005F00320037003700340031003600380037005F0031005F0039003000300039005F0039003100370039005F00660061006D005F0033005F00660061006D005F0041> 91 101 show_pos_width
376 <0063006800720037005F00360031003000380037003700350034005F00360031003200340038003300350035005F0031005F003100320032003300340039005F003100320032003500320031005F00660061006D005F0033005F00660061006D005F0041> 99 98 show_pos_width
369 <00630068007200310032005F00330037003900380039003800380037005F00330038003000320033003100310039005F0031005F00320032003100320035005F00320032003200390035005F00660061006D005F0032005F00660061006D005F0044> 88 94 show_pos_width
373 <00630068007200310039005F00320037003800380033003900340035005F00320037003900300038003700330030005F002D0031005F00310034003800350037005F00310035003000330031005F00660061006D005F0032005F00660061006D005F0044> 98 91 show_pos_width
356 <0063006800720035005F00340039003400300035003600340032005F00340039003400340031003600310037005F002D0031005F0039003900330038005F00310030003100300036005F00660061006D005F0033005F00660061006D005F0041> 115 87 show_pos_width
372 <00630068007200310034005F00310039003000300030003000300031005F00310039003000340038003800340033005F002D0031005F00330038003600390032005F00330038003800360032005F00660061006D005F0033005F00660061006D005F0041> 117 84 show_pos_width
360 <0063006800720038005F00340033003800300031003500350030005F00340033003800310033003800340036005F0031005F00310031003300360036005F00310031003500330035005F00660061006D005F0033005F00660061006D005F0041> 142 80 show_pos_width
356 <00630068007200310031005F00340038003900330031003300310032005F00340038003900340039003200360034005F002D0031005F0032003600300033005F0032003700370033005F00660061006D005F0033005F00660061006D005F0041> 97 77 show_pos_width
352 <00630068007200310031005F00340038003800370036003800380036005F00340038003800380035003900330034005F0031005F0035003100320037005F0035003200390036005F00660061006D005F0033005F00660061006D005F0041> 120 73 show_pos_width
368 <00630068007200310039005F00320034003500390037003700370032005F00320034003600330031003700380032005F0031005F00320030003100300034005F00320030003200370034005F00660061006D005F0033005F00660061006D005F0041> 103 70 show_pos_width
376 <0063006800720037005F00360031003000380037003700350034005F00360031003200340038003300350035005F0031005F003100340030003600330033005F003100340030003800300032005F00660061006D005F0033005F00660061006D005F0041> 109 66 show_pos_width
376 <0063006800720037005F00360031003000380037003700350034005F00360031003200340038003300350035005F0031005F003100330034003300310032005F003100330034003400380031005F00660061006D005F0033005F00660061006D005F0041> 115 63 show_pos_width
344 <0063006800720037005F00360031003900360037003100360030005F00360032003000300036003800310032005F0031005F0038003400310031005F0038003500380031005F00660061006D005F0033005F00660061006D005F0045> 137 59 show_pos_width
352 <00630068007200310030005F00340032003300390037003800310034005F00340032003400320031003500340032005F0031005F0035003500380038005F0035003700350037005F00660061006D005F0032005F00660061006D005F0042> 136 56 show_pos_width
380 <0063006800720031005F003100320031003300380036003300300033005F003100320031003400370036003100310030005F002D0031005F00370034003700310037005F00370034003800380037005F00660061006D005F0033005F00660061006D005F0041> 170 52 show_pos_width
352 <00630068007200310031005F00350031003100370032003100350038005F00350031003100370034003700310037005F0031005F0032003300390031005F0032003500350039005F00660061006D005F0031005F00660061006D005F0042> 106 49 show_pos_width
GS
87 793 93 793 L
GR
GS
87 789 97 789 L
GR
GS
87 793 87 789 L
GR
GS
86 791 87 791 L
GR
GS
86 786 90 786 L
GR
GS
86 791 86 786 L
GR
GS
86 796 86 796 L
GR
GS
86 788 86 788 L
GR
GS
86 796 86 788 L
GR
GS
88 782 88 782 L
GR
GS
88 779 90 779 L
GR
GS
88 782 88 779 L
GR
GS
87 780 88 780 L
GR
GS
87 775 93 775 L
GR
GS
87 780 87 775 L
GR
GS
86 778 87 778 L
GR
GS
86 772 88 772 L
GR
GS
86 778 86 772 L
GR
GS
86 792 86 792 L
GR
GS
86 775 86 775 L
GR
GS
86 792 86 775 L
GR
GS
86 783 86 783 L
GR
GS
86 768 90 768 L
GR
GS
86 783 86 768 L
GR
GS
91 765 115 765 L
GR
GS
91 761 107 761 L
GR
GS
91 765 91 761 L
GR
GS
89 758 95 758 L
GR
GS
89 754 97 754 L
GR
GS
89 758 89 754 L
GR
GS
88 763 91 763 L
GR
GS
88 756 89 756 L
GR
GS
88 763 88 756 L
GR
GS
87 759 88 759 L
GR
GS
87 751 95 751 L
GR
GS
87 759 87 751 L
GR
GS
86 755 87 755 L
GR
GS
86 747 90 747 L
GR
GS
86 755 86 747 L
GR
GS
86 751 86 751 L
GR
GS
86 744 88 744 L
GR
GS
86 751 86 744 L
GR
GS
86 776 86 776 L
GR
GS
86 747 86 747 L
GR
GS
86 776 86 747 L
GR
GS
98 740 117 740 L
GR
GS
98 737 107 737 L
GR
GS
98 740 98 737 L
GR
GS
90 738 98 738 L
GR
GS
90 733 104 733 L
GR
GS
90 738 90 733 L
GR
GS
88 736 90 736 L
GR
GS
88 730 94 730 L
GR
GS
88 736 88 730 L
GR
GS
89 723 95 723 L
GR
GS
89 719 100 719 L
GR
GS
89 723 89 719 L
GR
GS
88 726 95 726 L
GR
GS
88 721 89 721 L
GR
GS
88 726 88 721 L
GR
GS
88 723 88 723 L
GR
GS
88 716 90 716 L
GR
GS
88 723 88 716 L
GR
GS
87 733 88 733 L
GR
GS
87 719 88 719 L
GR
GS
87 733 87 719 L
GR
GS
87 726 87 726 L
GR
GS
87 712 88 712 L
GR
GS
87 726 87 712 L
GR
GS
88 709 97 709 L
GR
GS
88 705 91 705 L
GR
GS
88 709 88 705 L
GR
GS
86 719 87 719 L
GR
GS
86 707 88 707 L
GR
GS
86 719 86 707 L
GR
GS
88 695 88 695 L
GR
GS
88 691 88 691 L
GR
GS
88 695 88 691 L
GR
GS
88 698 88 698 L
GR
GS
88 693 88 693 L
GR
GS
88 698 88 693 L
GR
GS
88 702 97 702 L
GR
GS
88 695 88 695 L
GR
GS
88 702 88 695 L
GR
GS
88 688 107 688 L
GR
GS
88 684 88 684 L
GR
GS
88 688 88 684 L
GR
GS
87 699 88 699 L
GR
GS
87 686 88 686 L
GR
GS
87 699 87 686 L
GR
GS
89 681 102 681 L
GR
GS
89 677 97 677 L
GR
GS
89 681 89 677 L
GR
GS
90 674 93 674 L
GR
GS
90 670 102 670 L
GR
GS
90 674 90 670 L
GR
GS
88 679 89 679 L
GR
GS
88 672 90 672 L
GR
GS
88 679 88 672 L
GR
GS
87 675 88 675 L
GR
GS
87 667 100 667 L
GR
GS
87 675 87 667 L
GR
GS
90 663 107 663 L
GR
GS
90 660 98 660 L
GR
GS
90 663 90 660 L
GR
GS
89 661 90 661 L
GR
GS
89 656 97 656 L
GR
GS
89 661 89 656 L
GR
GS
86 671 87 671 L
GR
GS
86 659 89 659 L
GR
GS
86 671 86 659 L
GR
GS
86 692 87 692 L
GR
GS
86 665 86 665 L
GR
GS
86 692 86 665 L
GR
GS
86 713 86 713 L
GR
GS
86 679 86 679 L
GR
GS
86 713 86 679 L
GR
GS
86 761 86 761 L
GR
GS
86 696 86 696 L
GR
GS
86 761 86 696 L
GR
GS
90 649 97 649 L
GR
GS
90 646 104 646 L
GR
GS
90 649 90 646 L
GR
GS
88 653 92 653 L
GR
GS
88 647 90 647 L
GR
GS
88 653 88 647 L
GR
GS
88 642 93 642 L
GR
GS
88 639 100 639 L
GR
GS
88 642 88 639 L
GR
GS
88 640 88 640 L
GR
GS
88 635 92 635 L
GR
GS
88 640 88 635 L
GR
GS
87 650 88 650 L
GR
GS
87 638 88 638 L
GR
GS
87 650 87 638 L
GR
GS
86 644 87 644 L
GR
GS
86 632 88 632 L
GR
GS
86 644 86 632 L
GR
GS
87 628 100 628 L
GR
GS
87 625 88 625 L
GR
GS
87 628 87 625 L
GR
GS
87 626 87 626 L
GR
GS
87 621 95 621 L
GR
GS
87 626 87 621 L
GR
GS
86 638 86 638 L
GR
GS
86 624 87 624 L
GR
GS
86 638 86 624 L
GR
GS
88 614 105 614 L
GR
GS
88 611 90 611 L
GR
GS
88 614 88 611 L
GR
GS
86 618 88 618 L
GR
GS
86 612 88 612 L
GR
GS
86 618 86 612 L
GR
GS
86 631 86 631 L
GR
GS
86 615 86 615 L
GR
GS
86 631 86 615 L
GR
GS
88 607 95 607 L
GR
GS
88 604 90 604 L
GR
GS
88 607 88 604 L
GR
GS
90 600 102 600 L
GR
GS
90 597 97 597 L
GR
GS
90 600 90 597 L
GR
GS
88 605 88 605 L
GR
GS
88 598 90 598 L
GR
GS
88 605 88 598 L
GR
GS
88 593 102 593 L
GR
GS
88 590 90 590 L
GR
GS
88 593 88 590 L
GR
GS
87 602 88 602 L
GR
GS
87 591 88 591 L
GR
GS
87 602 87 591 L
GR
GS
92 586 92 586 L
GR
GS
92 583 100 583 L
GR
GS
92 586 92 583 L
GR
GS
89 584 92 584 L
GR
GS
89 579 105 579 L
GR
GS
89 584 89 579 L
GR
GS
87 582 89 582 L
GR
GS
87 576 98 576 L
GR
GS
87 582 87 576 L
GR
GS
86 597 87 597 L
GR
GS
86 579 87 579 L
GR
GS
86 597 86 579 L
GR
GS
88 572 95 572 L
GR
GS
88 569 98 569 L
GR
GS
88 572 88 569 L
GR
GS
89 565 102 565 L
GR
GS
89 562 98 562 L
GR
GS
89 565 89 562 L
GR
GS
87 570 88 570 L
GR
GS
87 563 89 563 L
GR
GS
87 570 87 563 L
GR
GS
89 555 102 555 L
GR
GS
89 551 97 551 L
GR
GS
89 555 89 551 L
GR
GS
87 558 92 558 L
GR
GS
87 553 89 553 L
GR
GS
87 558 87 553 L
GR
GS
86 567 87 567 L
GR
GS
86 556 87 556 L
GR
GS
86 567 86 556 L
GR
GS
88 548 95 548 L
GR
GS
88 544 88 544 L
GR
GS
88 548 88 544 L
GR
GS
88 541 98 541 L
GR
GS
88 537 92 537 L
GR
GS
88 541 88 537 L
GR
GS
87 546 88 546 L
GR
GS
87 539 88 539 L
GR
GS
87 546 87 539 L
GR
GS
86 561 86 561 L
GR
GS
86 542 87 542 L
GR
GS
86 561 86 542 L
GR
GS
86 588 86 588 L
GR
GS
86 552 86 552 L
GR
GS
86 588 86 552 L
GR
GS
88 534 100 534 L
GR
GS
88 530 90 530 L
GR
GS
88 534 88 530 L
GR
GS
87 532 88 532 L
GR
GS
87 527 100 527 L
GR
GS
87 532 87 527 L
GR
GS
88 523 88 523 L
GR
GS
88 520 95 520 L
GR
GS
88 523 88 520 L
GR
GS
88 521 88 521 L
GR
GS
88 516 95 516 L
GR
GS
88 521 88 516 L
GR
GS
87 519 88 519 L
GR
GS
87 513 95 513 L
GR
GS
87 519 87 513 L
GR
GS
86 529 87 529 L
GR
GS
86 516 87 516 L
GR
GS
86 529 86 516 L
GR
GS
86 570 86 570 L
GR
GS
86 523 86 523 L
GR
GS
86 570 86 523 L
GR
GS
86 623 86 623 L
GR
GS
86 546 86 546 L
GR
GS
86 623 86 546 L
GR
GS
86 729 86 729 L
GR
GS
86 585 86 585 L
GR
GS
86 729 86 585 L
GR
GS
93 509 98 509 L
GR
GS
93 506 95 506 L
GR
GS
93 509 93 506 L
GR
GS
92 502 93 502 L
GR
GS
92 499 104 499 L
GR
GS
92 502 92 499 L
GR
GS
91 507 93 507 L
GR
GS
91 500 92 500 L
GR
GS
91 507 91 500 L
GR
GS
90 495 106 495 L
GR
GS
90 492 90 492 L
GR
GS
90 495 90 492 L
GR
GS
88 493 90 493 L
GR
GS
88 488 95 488 L
GR
GS
88 493 88 488 L
GR
GS
88 491 88 491 L
GR
GS
88 485 88 485 L
GR
GS
88 491 88 485 L
GR
GS
87 504 91 504 L
GR
GS
87 488 88 488 L
GR
GS
87 504 87 488 L
GR
GS
98 474 102 474 L
GR
GS
98 471 105 471 L
GR
GS
98 474 98 471 L
GR
GS
95 478 105 478 L
GR
GS
95 472 98 472 L
GR
GS
95 478 95 472 L
GR
GS
94 481 97 481 L
GR
GS
94 475 95 475 L
GR
GS
94 481 94 475 L
GR
GS
92 478 94 478 L
GR
GS
92 467 95 467 L
GR
GS
92 478 92 467 L
GR
GS
91 473 92 473 L
GR
GS
91 464 93 464 L
GR
GS
91 473 91 464 L
GR
GS
88 453 93 453 L
GR
GS
88 450 88 450 L
GR
GS
88 453 88 450 L
GR
GS
88 457 92 457 L
GR
GS
88 451 88 451 L
GR
GS
88 457 88 451 L
GR
GS
88 460 90 460 L
GR
GS
88 454 88 454 L
GR
GS
88 460 88 454 L
GR
GS
88 457 88 457 L
GR
GS
88 446 92 446 L
GR
GS
88 457 88 446 L
GR
GS
88 468 91 468 L
GR
GS
88 452 88 452 L
GR
GS
88 468 88 452 L
GR
GS
86 496 87 496 L
GR
GS
86 460 88 460 L
GR
GS
86 496 86 460 L
GR
GS
85 657 86 657 L
GR
GS
85 478 86 478 L
GR
GS
85 657 85 478 L
GR
GS
87 443 99 443 L
GR
GS
87 439 87 439 L
GR
GS
87 443 87 439 L
GR
GS
88 436 99 436 L
GR
GS
88 432 99 432 L
GR
GS
88 436 88 432 L
GR
GS
87 441 87 441 L
GR
GS
87 434 88 434 L
GR
GS
87 441 87 434 L
GR
GS
86 437 87 437 L
GR
GS
86 429 90 429 L
GR
GS
86 437 86 429 L
GR
GS
85 567 85 567 L
GR
GS
85 433 86 433 L
GR
GS
85 567 85 433 L
GR
GS
84 500 85 500 L
GR
GS
84 425 86 425 L
GR
GS
84 500 84 425 L
GR
GS
88 422 88 422 L
GR
GS
88 418 95 418 L
GR
GS
88 422 88 418 L
GR
GS
86 415 91 415 L
GR
GS
86 411 103 411 L
GR
GS
86 415 86 411 L
GR
GS
86 413 86 413 L
GR
GS
86 408 91 408 L
GR
GS
86 413 86 408 L
GR
GS
86 410 86 410 L
GR
GS
86 404 98 404 L
GR
GS
86 410 86 404 L
GR
GS
86 420 88 420 L
GR
GS
86 407 86 407 L
GR
GS
86 420 86 407 L
GR
GS
86 414 86 414 L
GR
GS
86 401 90 401 L
GR
GS
86 414 86 401 L
GR
GS
83 463 84 463 L
GR
GS
83 407 86 407 L
GR
GS
83 463 83 407 L
GR
GS
82 435 83 435 L
GR
GS
82 397 105 397 L
GR
GS
82 435 82 397 L
GR
GS
79 394 101 394 L
GR
GS
79 390 112 390 L
GR
GS
79 394 79 390 L
GR
GS
74 416 82 416 L
GR
GS
74 392 79 392 L
GR
GS
74 416 74 392 L
GR
GS
19 404 74 404 L
GR
GS
19 387 49 387 L
GR
GS
19 404 19 387 L
GR
GS
18 395 19 395 L
GR
GS
18 383 80 383 L
GR
GS
18 395 18 383 L
GR
GS
16 389 18 389 L
GR
GS
16 380 58 380 L
GR
GS
16 389 16 380 L
GR
GS
47 376 89 376 L
GR
GS
47 373 91 373 L
GR
GS
47 376 47 373 L
GR
GS
51 366 111 366 L
GR
GS
51 362 85 362 L
GR
GS
51 366 51 362 L
GR
GS
48 369 89 369 L
GR
GS
48 364 51 364 L
GR
GS
48 369 48 364 L
GR
GS
42 375 47 375 L
GR
GS
42 367 48 367 L
GR
GS
42 375 42 367 L
GR
GS
45 359 117 359 L
GR
GS
45 355 86 355 L
GR
GS
45 359 45 355 L
GR
GS
42 371 42 371 L
GR
GS
42 357 45 357 L
GR
GS
42 371 42 357 L
GR
GS
41 364 42 364 L
GR
GS
41 352 80 352 L
GR
GS
41 364 41 352 L
GR
GS
74 345 125 345 L
GR
GS
74 341 139 341 L
GR
GS
74 345 74 341 L
GR
GS
58 348 110 348 L
GR
GS
58 343 74 343 L
GR
GS
58 348 58 343 L
GR
GS
54 346 58 346 L
GR
GS
54 338 114 338 L
GR
GS
54 346 54 338 L
GR
GS
36 342 54 342 L
GR
GS
36 334 88 334 L
GR
GS
36 342 36 334 L
GR
GS
34 358 41 358 L
GR
GS
34 338 36 338 L
GR
GS
34 358 34 338 L
GR
GS
32 348 34 348 L
GR
GS
32 331 91 331 L
GR
GS
32 348 32 331 L
GR
GS
22 339 32 339 L
GR
GS
22 327 86 327 L
GR
GS
22 339 22 327 L
GR
GS
66 324 128 324 L
GR
GS
66 320 119 320 L
GR
GS
66 324 66 320 L
GR
GS
52 322 66 322 L
GR
GS
52 317 105 317 L
GR
GS
52 322 52 317 L
GR
GS
50 313 86 313 L
GR
GS
50 310 133 310 L
GR
GS
50 313 50 310 L
GR
GS
45 312 50 312 L
GR
GS
45 306 112 306 L
GR
GS
45 312 45 306 L
GR
GS
39 319 52 319 L
GR
GS
39 309 45 309 L
GR
GS
39 319 39 309 L
GR
GS
44 303 110 303 L
GR
GS
44 299 101 299 L
GR
GS
44 303 44 299 L
GR
GS
36 314 39 314 L
GR
GS
36 301 44 301 L
GR
GS
36 314 36 301 L
GR
GS
32 308 36 308 L
GR
GS
32 296 80 296 L
GR
GS
32 308 32 296 L
GR
GS
63 292 107 292 L
GR
GS
63 289 79 289 L
GR
GS
63 292 63 289 L
GR
GS
30 302 32 302 L
GR
GS
30 291 63 291 L
GR
GS
30 302 30 291 L
GR
GS
27 296 30 296 L
GR
GS
27 285 69 285 L
GR
GS
27 296 27 285 L
GR
GS
40 278 98 278 L
GR
GS
40 275 97 275 L
GR
GS
40 278 40 275 L
GR
GS
36 282 75 282 L
GR
GS
36 277 40 277 L
GR
GS
36 282 36 277 L
GR
GS
46 271 92 271 L
GR
GS
46 268 77 268 L
GR
GS
46 271 46 268 L
GR
GS
41 270 46 270 L
GR
GS
41 264 86 264 L
GR
GS
41 270 41 264 L
GR
GS
36 279 36 279 L
GR
GS
36 267 41 267 L
GR
GS
36 279 36 267 L
GR
GS
34 261 63 261 L
GR
GS
34 257 82 257 L
GR
GS
34 261 34 257 L
GR
GS
32 273 36 273 L
GR
GS
32 259 34 259 L
GR
GS
32 273 32 259 L
GR
GS
27 291 27 291 L
GR
GS
27 266 32 266 L
GR
GS
27 291 27 266 L
GR
GS
24 278 27 278 L
GR
GS
24 254 58 254 L
GR
GS
24 278 24 254 L
GR
GS
30 250 79 250 L
GR
GS
30 247 63 247 L
GR
GS
30 250 30 247 L
GR
GS
23 249 30 249 L
GR
GS
23 243 55 243 L
GR
GS
23 249 23 243 L
GR
GS
21 266 24 266 L
GR
GS
21 246 23 246 L
GR
GS
21 266 21 246 L
GR
GS
18 333 22 333 L
GR
GS
18 256 21 256 L
GR
GS
18 333 18 256 L
GR
GS
18 240 76 240 L
GR
GS
18 236 62 236 L
GR
GS
18 240 18 236 L
GR
GS
17 238 18 238 L
GR
GS
17 233 56 233 L
GR
GS
17 238 17 233 L
GR
GS
14 295 18 295 L
GR
GS
14 235 17 235 L
GR
GS
14 295 14 235 L
GR
GS
13 385 16 385 L
GR
GS
13 265 14 265 L
GR
GS
13 385 13 265 L
GR
GS
52 226 81 226 L
GR
GS
52 222 118 222 L
GR
GS
52 226 52 222 L
GR
GS
53 219 79 219 L
GR
GS
53 215 75 215 L
GR
GS
53 219 53 215 L
GR
GS
59 208 89 208 L
GR
GS
59 205 109 205 L
GR
GS
59 208 59 205 L
GR
GS
53 207 59 207 L
GR
GS
53 201 82 201 L
GR
GS
53 207 53 201 L
GR
GS
52 204 53 204 L
GR
GS
52 198 115 198 L
GR
GS
52 204 52 198 L
GR
GS
50 212 86 212 L
GR
GS
50 201 52 201 L
GR
GS
50 212 50 201 L
GR
GS
48 217 53 217 L
GR
GS
48 206 50 206 L
GR
GS
48 217 48 206 L
GR
GS
47 212 48 212 L
GR
GS
47 194 76 194 L
GR
GS
47 212 47 194 L
GR
GS
44 203 47 203 L
GR
GS
44 191 77 191 L
GR
GS
44 203 44 191 L
GR
GS
42 224 52 224 L
GR
GS
42 197 44 197 L
GR
GS
42 224 42 197 L
GR
GS
40 211 42 211 L
GR
GS
40 187 84 187 L
GR
GS
40 211 40 187 L
GR
GS
48 184 85 184 L
GR
GS
48 180 67 180 L
GR
GS
48 184 48 180 L
GR
GS
45 182 48 182 L
GR
GS
45 177 82 177 L
GR
GS
45 182 45 177 L
GR
GS
50 173 92 173 L
GR
GS
50 170 94 170 L
GR
GS
50 173 50 170 L
GR
GS
46 172 50 172 L
GR
GS
46 166 69 166 L
GR
GS
46 172 46 166 L
GR
GS
40 180 45 180 L
GR
GS
40 169 46 169 L
GR
GS
40 180 40 169 L
GR
GS
38 199 40 199 L
GR
GS
38 174 40 174 L
GR
GS
38 199 38 174 L
GR
GS
41 163 74 163 L
GR
GS
41 159 83 159 L
GR
GS
41 163 41 159 L
GR
GS
42 156 80 156 L
GR
GS
42 152 90 152 L
GR
GS
42 156 42 152 L
GR
GS
38 161 41 161 L
GR
GS
38 154 42 154 L
GR
GS
38 161 38 154 L
GR
GS
41 149 85 149 L
GR
GS
41 145 96 145 L
GR
GS
41 149 41 145 L
GR
GS
36 158 38 158 L
GR
GS
36 147 41 147 L
GR
GS
36 158 36 147 L
GR
GS
36 187 38 187 L
GR
GS
36 152 36 152 L
GR
GS
36 187 36 152 L
GR
GS
29 170 36 170 L
GR
GS
29 142 96 142 L
GR
GS
29 170 29 142 L
GR
GS
60 135 83 135 L
GR
GS
60 131 89 131 L
GR
GS
60 135 60 131 L
GR
GS
53 128 76 128 L
GR
GS
53 124 115 124 L
GR
GS
53 128 53 124 L
GR
GS
50 133 60 133 L
GR
GS
50 126 53 126 L
GR
GS
50 133 50 126 L
GR
GS
44 130 50 130 L
GR
GS
44 121 58 121 L
GR
GS
44 130 44 121 L
GR
GS
62 110 102 110 L
GR
GS
62 107 102 107 L
GR
GS
62 110 62 107 L
GR
GS
57 114 83 114 L
GR
GS
57 109 62 109 L
GR
GS
57 114 57 109 L
GR
GS
52 111 57 111 L
GR
GS
52 103 85 103 L
GR
GS
52 111 52 103 L
GR
GS
53 100 76 100 L
GR
GS
53 96 88 96 L
GR
GS
53 100 53 96 L
GR
GS
52 93 96 93 L
GR
GS
52 89 85 89 L
GR
GS
52 93 52 89 L
GR
GS
80 75 139 75 L
GR
GS
80 72 94 72 L
GR
GS
80 75 80 72 L
GR
GS
76 74 80 74 L
GR
GS
76 68 117 68 L
GR
GS
76 74 76 68 L
GR
GS
75 71 76 71 L
GR
GS
75 65 101 65 L
GR
GS
75 71 75 65 L
GR
GS
75 61 106 61 L
GR
GS
75 58 112 58 L
GR
GS
75 61 75 58 L
GR
GS
72 68 75 68 L
GR
GS
72 60 75 60 L
GR
GS
72 68 72 60 L
GR
GS
83 54 134 54 L
GR
GS
83 51 133 51 L
GR
GS
83 54 83 51 L
GR
GS
92 47 167 47 L
GR
GS
92 44 104 44 L
GR
GS
92 47 92 44 L
GR
GS
70 53 83 53 L
GR
GS
70 46 92 46 L
GR
GS
70 53 70 46 L
GR
GS
66 64 72 64 L
GR
GS
66 49 70 49 L
GR
GS
66 64 66 49 L
GR
GS
62 79 115 79 L
GR
GS
62 57 66 57 L
GR
GS
62 79 62 57 L
GR
GS
58 82 113 82 L
GR
GS
58 68 62 68 L
GR
GS
58 82 58 68 L
GR
GS
51 86 95 86 L
GR
GS
51 75 58 75 L
GR
GS
51 86 51 75 L
GR
GS
49 91 52 91 L
GR
GS
49 81 51 81 L
GR
GS
49 91 49 81 L
GR
GS
48 98 53 98 L
GR
GS
48 86 49 86 L
GR
GS
48 98 48 86 L
GR
GS
47 107 52 107 L
GR
GS
47 92 48 92 L
GR
GS
47 107 47 92 L
GR
GS
43 117 81 117 L
GR
GS
43 100 47 100 L
GR
GS
43 117 43 100 L
GR
GS
39 125 44 125 L
GR
GS
39 109 43 109 L
GR
GS
39 125 39 109 L
GR
GS
32 138 94 138 L
GR
GS
32 117 39 117 L
GR
GS
32 138 32 117 L
GR
GS
24 156 29 156 L
GR
GS
24 128 32 128 L
GR
GS
24 156 24 128 L
GR
GS
20 229 74 229 L
GR
GS
20 142 24 142 L
GR
GS
20 229 20 142 L
GR
GS
12 325 13 325 L
GR
GS
12 186 20 186 L
GR
GS
12 325 12 186 L
GR
118 <00420069006F004E004A00200032003000370020007300690074006500730020004A002D0043> 6 31 show_pos_width
/Times-Roman2B SF
13.8 FS
GS
491 27 531 27 L
GR
GS
491 31 491 23 L
GR
GS
531 31 531 23 L
GR
20 <0030002E0031> 501 25 show_pos_width
CR
CS
0 GL
1 setlinewidth
2 setlinecap
0 setlinejoin
[] 0 setdash
/Times-Roman2B SF
13.8 FS
CR
GR
GR
GR
SP
 restore
%%Trailer
%%Pages: 1
%%EOF